L
:9999
D11
H16
PC	
SC
1X1100002250005L380002
1X1100001750005L380002
1X1100000500005L380002
1X1100000020003L383002
1X1100000040385L002222
1X1100000040003L002222
1X1100000040250L002046
1X1100000040300L002046
1X1100001770110L002048
1911A1601950015GIBUS
1911A0801800010TENDE DA SOLE
1911A1002000120N:
1911A1402000140<NUM_ORDINE>
1911A1002000270RIG:
1911A1402000300<NUM_RIGHE>
1911A1001800115CON:
1911A1401800156<DATA_CONSEGNA>
1911A1001800240GIRO:
1911A1201800280<GIRO_CONSEGNA>
1911A1001500010cliente:
1911A1201500060<RAGIONE_SOCIALE>
1911A1001300010rif:
1911A1201300060<NUM_ORD_CLIENTE>
1911A1001060010nota:
1911A1201060050<NOTA_PRODOTTO>
1911A1000800010indirizzo:
1911A1200800066<INDIRIZZO>
1911A1200600066<IND_2>
1911A0800350255Quantita'
1911A1600060260<QUANTITA>
1911A0800300010MOD:
1911A1000300045<DESCRIZIONE_PRODOTTO>
1911A0800100010DIMENSIONI:
1911A1200070090<DIMENSIONI>
1911A0800350305Colli
Q<NUM_COPIE>
E
